{
   "root": {
      "versao": "1",
      "criado_data": "2017-10-09T11:57:05.995Z",
      "Dados_cliente": {
         "id": "1",
         "nome": "Jose Soares pereira alcantara almeida santos",
         "telefones": {
            "casa": "11-2222-8989",
            "comercial": "11-3333-9999",
            "data_de_nascimento": "1989-05-09T00:00:00.000Z"
         },
         "email": [
            "teste@teste.com.br",
            "teste2@teste2.com"
         ]
      }
   }
}